<svg width="5" height="5" viewBox="0 0 5 5" version="1.1" xmlns="http://www.w3.org/2000/svg" xmlns:xlink="http://www.w3.org/1999/xlink">
<title>xui-pizda</title>
<desc>Created using Figma</desc>
<g id="Canvas" transform="translate(6246 635)">
<clipPath id="clip-0" clip-rule="evenodd">
<path d="M -6246 -635L -6241.5 -635L -6241.5 -630.5L -6246 -630.5L -6246 -635Z" fill="#FFFFFF"/>
</clipPath>
<g id="xui-pizda" clip-path="url(#clip-0)">
<path d="M -6246 -635L -6241.5 -635L -6241.5 -630.5L -6246 -630.5L -6246 -635Z" fill="#FFFFFF"/>
<g id="Ellipse">
<use xlink:href="#path0_fill" transform="translate(-6246 -635)" fill="#4CC5EC"/>
</g>
</g>
</g>
<defs>
<path id="path0_fill" d="M 1.5 0.75C 1.5 1.16421 1.16421 1.5 0.75 1.5C 0.335786 1.5 0 1.16421 0 0.75C 0 0.335786 0.335786 0 0.75 0C 1.16421 0 1.5 0.335786 1.5 0.75Z"/>
</defs>
</svg>
